predicttornado-vignette • predicttornado
…
We would want to remove these features and rows with missing data, so
we will want to do preprocessing of the data. This is where the
process_data function comes into play.

clean_data <- process_data(tornado_data)
clean_data
#> # A tibble: 67,937 × 17
#>       ID  year month   day time   datetime_utc        state   mag injuries
#>    <dbl> <dbl> <dbl> <dbl> <time> <dttm>              <chr> <dbl>    <dbl>
#>  1   192  1950    10     1 21:00  1950-10-02 03:00:00 OK        1        0
#>  2   193  1950    10     9 02:15  1950-10-09 08:15:00 NC        3        3
#>  3   195  1950    11    20 02:20  1950-11-20 08:20:00 KY        2        0
#>  4   196  1950    11    20 04:00  1950-11-20 10:00:00 KY        1        0
#>  5   197  1950    11    20 07:30  1950-11-20 13:30:00 MS        1        3
#>  6   194  1950    11     4 17:00  1950-11-04 23:00:00 PA        3        1
#>  7   198  1950    12     2 15:00  1950-12-02 21:00:00 IL        2        3
#>  8   199  1950    12     2 16:00  1950-12-02 22:00:00 IL        3       25
#>  9   200  1950    12     2 16:25  1950-12-02 22:25:00 AR        3        0
#> 10   201  1950    12     2 17:30  1950-12-02 23:30:00 IL        1        0
#> # ℹ 67,927 more rows
#> # ℹ 8 more variables: fatalities <dbl>, start_lat <dbl>, start_lon <dbl>,
#> #   end_lat <dbl>, end_lon <dbl>, length <dbl>, width <dbl>, ns <dbl>
…
